Chapter 3 Logistic Regression Model and Credit Scorecard | LendingClub Loans Pricing
…
resultSubgrade

## $IV
## [1] 0.4980104
## 
## $type
## [1] "categorical"
## 
## $table
## # A tibble: 35 x 19
##    sub_grade Name  Count nGood  nBad cumCount cumGood cumBad pctCount pctGood  pctBad OddsInBin LnOddsInBin WoEInBin IVInBin   WoE
##    <chr>     <chr> <dbl> <dbl> <dbl>    <dbl>   <dbl>  <dbl>    <dbl>   <dbl>   <dbl>     <dbl>       <dbl>    <dbl>   <dbl> <dbl>
##  1 A1        A1     6501  6297   204     6501    6297    204   0.0311  0.0377 0.00485     30.9         3.43     3.43       0 2.05 
##  2 A2        A2     5620  5344   276    12121   11641    480   0.0269  0.0320 0.00656     19.4         2.96     2.96       0 1.58 
##  3 A3        A3     5889  5582   307    18010   17223    787   0.0282  0.0334 0.00730     18.2         2.90     2.90       0 1.52 
##  4 A4        A4     8159  7578   581    26169   24801   1368   0.0390  0.0454 0.0138      13.0         2.57     2.57       0 1.19 
##  5 A5        A5    10020  9171   849    36189   33972   2217   0.0479  0.0549 0.0202      10.8         2.38     2.38       0 1.00 
##  6 B1        B1    10934  9743  1191    47123   43715   3408   0.0523  0.0584 0.0283       8.18        2.10     2.10       0 0.723
##  7 B2        B2    11345 10101  1244    58468   53816   4652   0.0543  0.0605 0.0296       8.12        2.09     2.09       0 0.715
##  8 B3        B3    12838 11186  1652    71306   65002   6304   0.0614  0.0670 0.0393       6.77        1.91     1.91       0 0.534
##  9 B4        B4    12895 10959  1936    84201   75961   8240   0.0617  0.0656 0.0460       5.66        1.73     1.73       0 0.354
## 10 B5        B5    12882 10749  2133    97083   86710  10373   0.0616  0.0644 0.0507       5.04        1.62     1.62       0 0.238
## # … with 25 more rows, and 3 more variables: IV <dbl>, pctGoodBin <dbl>, pctBadBin <dbl>
…
resultState

## $IV
## [1] 0.01744293
## 
## $type
## [1] "categorical"
## 
## $table
## # A tibble: 51 x 19
##    addr_state Name  Count nGood  nBad cumCount cumGood cumBad pctCount pctGood  pctBad OddsInBin LnOddsInBin WoEInBin IVInBin
##    <chr>      <chr> <dbl> <dbl> <dbl>    <dbl>   <dbl>  <dbl>    <dbl>   <dbl>   <dbl>     <dbl>       <dbl>    <dbl>   <dbl>
##  1 AK         AK      442   345    97      442     345     97  0.00211 0.00207 0.00231      3.56        1.27     1.27       0
##  2 AL         AL     2545  1973   572     2987    2318    669  0.0122  0.0118  0.0136       3.45        1.24     1.24       0
##  3 AR         AR     1543  1175   368     4530    3493   1037  0.00738 0.00704 0.00875      3.19        1.16     1.16       0
##  4 AZ         AZ     5214  4224   990     9744    7717   2027  0.0249  0.0253  0.0235       4.27        1.45     1.45       0
##  5 CA         CA    30732 24682  6050    40476   32399   8077  0.147   0.148   0.144        4.08        1.41     1.41       0
##  6 CO         CO     4633  3908   725    45109   36307   8802  0.0222  0.0234  0.0172       5.39        1.68     1.68       0
##  7 CT         CT     3024  2483   541    48133   38790   9343  0.0145  0.0149  0.0129       4.59        1.52     1.52       0
##  8 DC         DC      531   461    70    48664   39251   9413  0.00254 0.00276 0.00166      6.59        1.88     1.88       0
##  9 DE         DE      594   468   126    49258   39719   9539  0.00284 0.00280 0.00300      3.71        1.31     1.31       0
## 10 FL         FL    14906 11726  3180    64164   51445  12719  0.0713  0.0702  0.0756       3.69        1.30     1.30       0
## # … with 41 more rows, and 4 more variables: WoE <dbl>, IV <dbl>, pctGoodBin <dbl>, pctBadBin <dbl>
…
